<?xml version="1.0" encoding="UTF-8" standalone="no"?>

<svg

   xmlns="http://www.w3.org/2000/svg"
   version="2.0"
   viewBox="0 0 200 200"
   width="200"
   height="200"
   id="Starter Page">


<path
       d="m 150,150 c 20,70 -70,20 -100,-100"
       id="Sample Curve"
       fill="none" stroke="black" stroke-width="1" />

<rect x="-5" y="-5" width="25" height="25" fill="red">
    <animateMotion path="m 150,150 c 20,70 -70,20 -100,-100" dur="10s"
                   rotate="60" repeatCount="indefinite"/>
</rect>
</svg>
